…
`read_sheet()` is the main “read” function and should evoke
`readr::read_csv()` and `readxl::read_excel()`. It’s an alias for
`sheets_read()`, because most functions in googlesheets4 actually start
with `sheets_`. googlesheets4 is pipe-friendly (and reexports `%>%`),
but works just fine without the pipe.

`read_sheet()` is designed to “just work”, for most purposes, most of
the time. It can read straight from a Sheets browser URL:

``` r
sheets_read("https://docs.google.com/spreadsheets/d/1U6Cf_qEOhiR9AZqTqS3mbMF3zt2db48ZP5v3rkrAEJY/edit#gid=780868077")
#> Reading from "gapminder"
#> Range "Africa"
#> # A tibble: 624 x 6
#>   country continent  year lifeExp      pop gdpPercap
#>   <chr>   <chr>     <dbl>   <dbl>    <dbl>     <dbl>
#> 1 Algeria Africa     1952    43.1  9279525     2449.
#> 2 Algeria Africa     1957    45.7 10270856     3014.
#> 3 Algeria Africa     1962    48.3 11000948     2551.
#> 4 Algeria Africa     1967    51.4 12760499     3247.
#> # … with 620 more rows
```

However, these URLs are not pleasant to work with. More often, you will
want to identify a Sheet by its ID:

``` r
sheets_read("1U6Cf_qEOhiR9AZqTqS3mbMF3zt2db48ZP5v3rkrAEJY")
#> Reading from "gapminder"
#> Range "Africa"
#> # A tibble: 624 x 6
#>   country continent  year lifeExp      pop gdpPercap
#>   <chr>   <chr>     <dbl>   <dbl>    <dbl>     <dbl>
#> 1 Algeria Africa     1952    43.1  9279525     2449.
#> 2 Algeria Africa     1957    45.7 10270856     3014.
#> 3 Algeria Africa     1962    48.3 11000948     2551.
#> 4 Algeria Africa     1967    51.4 12760499     3247.
#> # … with 620 more rows
```

or by its name, which requires an assist from the googledrive package
([googledrive.tidyverse.org](https://googledrive.tidyverse.org)):

<!-- remove the 'message = i' later -->

``` r
library(googledrive)

drive_get("gapminder") %>% 
  sheets_read()
#> Range "Africa"
#> # A tibble: 624 x 6
#>   country continent  year lifeExp      pop gdpPercap
#>   <chr>   <chr>     <dbl>   <dbl>    <dbl>     <dbl>
#> 1 Algeria Africa     1952    43.1  9279525     2449.
#> 2 Algeria Africa     1957    45.7 10270856     3014.
#> 3 Algeria Africa     1962    48.3 11000948     2551.
#> 4 Algeria Africa     1967    51.4 12760499     3247.
#> # … with 620 more rows
```
…
read_sheet(sheets_example("mini-gap"), sheet = "Oceania", n_max = 3)
#> Reading from "mini-gap"
#> Range "'Oceania'"
#> # A tibble: 3 x 6
#>   country     continent  year lifeExp     pop gdpPercap
#>   <chr>       <chr>     <dbl>   <dbl>   <dbl>     <dbl>
#> 1 Australia   Oceania    1952    69.1 8691212    10040.
#> 2 New Zealand Oceania    1952    69.4 1994794    10557.
#> 3 Australia   Oceania    1957    70.3 9712569    10950.

read_sheet(sheets_example("deaths"), skip = 4, n_max = 10)
#> Reading from "deaths"
#> Range "5:5000000"
#> # A tibble: 10 x 6
#>   Name       Profession   Age `Has kids` `Date of birth`     `Date of death`    
#>   <chr>      <chr>      <dbl> <lgl>      <dttm>              <dttm>             
#> 1 David Bow… musician      69 TRUE       1947-01-08 00:00:00 2016-01-10 00:00:00
#> 2 Carrie Fi… actor         60 TRUE       1956-10-21 00:00:00 2016-12-27 00:00:00
#> 3 Chuck Ber… musician      90 TRUE       1926-10-18 00:00:00 2017-03-18 00:00:00
#> 4 Bill Paxt… actor         61 TRUE       1955-05-17 00:00:00 2017-02-25 00:00:00
#> # … with 6 more rows

read_sheet(
  sheets_example("deaths"), range = "other!A5:F15", col_types = "?ci??D"
)
#> Reading from "deaths"
#> Range "'other'!A5:F15"
#> # A tibble: 10 x 6
#>   Name         Profession   Age `Has kids` `Date of birth`     `Date of death`
#>   <chr>        <chr>      <int> <lgl>      <dttm>              <date>         
#> 1 Vera Rubin   scientist     88 TRUE       1928-07-23 00:00:00 2016-12-25     
#> 2 Mohamed Ali  athlete       74 TRUE       1942-01-17 00:00:00 2016-06-03     
#> 3 Morley Safer journalist    84 TRUE       1931-11-08 00:00:00 2016-05-19     
#> 4 Fidel Castro politician    90 TRUE       1926-08-13 00:00:00 2016-11-25     
#> # … with 6 more rows
```
…
We’ve designated the data rectangles as [named
ranges](https://support.google.com/docs/answer/63175?co=GENIE.Platform%3DDesktop&hl=en),
which provides a very slick way to read them – definitely less brittle
and mysterious than approaches like `range = "other!A5:F15"` or `skip
= 4, n_max = 10`. A named range can be passed via the `range =`
argument:

``` r
sheets_example("deaths") %>% 
  read_sheet(range = "arts_data")
#> Reading from "deaths"
#> Range "arts_data"
#> # A tibble: 10 x 6
#>   Name       Profession   Age `Has kids` `Date of birth`     `Date of death`    
#>   <chr>      <chr>      <dbl> <lgl>      <dttm>              <dttm>             
#> 1 David Bow… musician      69 TRUE       1947-01-08 00:00:00 2016-01-10 00:00:00
#> 2 Carrie Fi… actor         60 TRUE       1956-10-21 00:00:00 2016-12-27 00:00:00
#> 3 Chuck Ber… musician      90 TRUE       1926-10-18 00:00:00 2017-03-18 00:00:00
#> 4 Bill Paxt… actor         61 TRUE       1955-05-17 00:00:00 2017-02-25 00:00:00
#> # … with 6 more rows
```
…
