…
Download the Sheet as an Excel workbook and read it back in via
`readxl::read_excel()`.

``` r
(iris_xlsxfile <- sub("[.]csv", ".xlsx", iris_tempfile))
#> [1] "/var/folders/yx/3p5dt4jj1019st0x90vhm9rr0000gn/T//RtmpMebA2C/iris-73b57a343fad.xlsx"
drive_download(iris_ss, path = iris_xlsxfile, overwrite = TRUE)
#> File downloaded:
#>   * iris-73b57a343fad
#> Saved locally as:
#>   * /var/folders/yx/3p5dt4jj1019st0x90vhm9rr0000gn/T//RtmpMebA2C/iris-73b57a343fad.xlsx
readxl::read_excel(iris_xlsxfile)
#> # A tibble: 150 x 5
#>    Sepal.Length Sepal.Width Petal.Length Petal.Width Species
#>           <dbl>       <dbl>        <dbl>       <dbl> <chr>  
#>  1          5.1         3.5          1.4         0.2 setosa 
#>  2          4.9         3            1.4         0.2 setosa 
#>  3          4.7         3.2          1.3         0.2 setosa 
#>  4          4.6         3.1          1.5         0.2 setosa 
#>  5          5           3.6          1.4         0.2 setosa 
#>  6          5.4         3.9          1.7         0.4 setosa 
#>  7          4.6         3.4          1.4         0.3 setosa 
#>  8          5           3.4          1.5         0.2 setosa 
#>  9          4.4         2.9          1.4         0.2 setosa 
#> 10          4.9         3.1          1.5         0.1 setosa 
#> # … with 140 more rows
```
…
