Access Google Sheets using the Sheets API V4 • googlesheets4
…
Read from

a URL

a Sheet ID

a dribble produced by the googledrive package, which can lookup by file name

These all achieve the same thing:

# URL
read_sheet("https://docs.google.com/spreadsheets/d/1U6Cf_qEOhiR9AZqTqS3mbMF3zt2db48ZP5v3rkrAEJY/edit#gid=780868077")
#> ✔ Reading from "gapminder".
#> ✔ Range 'Africa'.
#> # A tibble: 624 × 6
#>   country continent  year lifeExp      pop gdpPercap
#>   <chr>   <chr>     <dbl>   <dbl>    <dbl>     <dbl>
#> 1 Algeria Africa     1952    43.1  9279525     2449.
#> 2 Algeria Africa     1957    45.7 10270856     3014.
#> 3 Algeria Africa     1962    48.3 11000948     2551.
#> 4 Algeria Africa     1967    51.4 12760499     3247.
#> 5 Algeria Africa     1972    54.5 14760787     4183.
#> # ℹ 619 more rows

# Sheet ID
read_sheet("1U6Cf_qEOhiR9AZqTqS3mbMF3zt2db48ZP5v3rkrAEJY")
#> ✔ Reading from "gapminder".
#> ✔ Range 'Africa'.
#> # A tibble: 624 × 6
#>   country continent  year lifeExp      pop gdpPercap
#>   <chr>   <chr>     <dbl>   <dbl>    <dbl>     <dbl>
#> 1 Algeria Africa     1952    43.1  9279525     2449.
#> 2 Algeria Africa     1957    45.7 10270856     3014.
#> 3 Algeria Africa     1962    48.3 11000948     2551.
#> 4 Algeria Africa     1967    51.4 12760499     3247.
#> 5 Algeria Africa     1972    54.5 14760787     4183.
#> # ℹ 619 more rows

# a googledrive "dribble"
googledrive::drive_get("gapminder") %>% 
  read_sheet()
#> ✔ The input `path` resolved to exactly 1 file.
#> ✔ Reading from "gapminder".
#> ✔ Range 'Africa'.
#> # A tibble: 624 × 6
#>   country continent  year lifeExp      pop gdpPercap
#>   <chr>   <chr>     <dbl>   <dbl>    <dbl>     <dbl>
#> 1 Algeria Africa     1952    43.1  9279525     2449.
#> 2 Algeria Africa     1957    45.7 10270856     3014.
#> 3 Algeria Africa     1962    48.3 11000948     2551.
#> 4 Algeria Africa     1967    51.4 12760499     3247.
#> 5 Algeria Africa     1972    54.5 14760787     4183.
#> # ℹ 619 more rows
…
