Find and identify Sheets • googlesheets4
…
https://docs.google.com/spreadsheets/d/SPREADSHEET_ID/edit#gid=SHEET_ID

Notice that this URL contains a (spread)Sheet ID and a (work)sheet
ID. This URL happens to link to the
official example Sheet that holds Gapminder data.

googlesheets4 accepts such a URL as the ss argument
(think “spreadsheet”) of many functions:

ugly_url <- "https://docs.google.com/spreadsheets/d/1U6Cf_qEOhiR9AZqTqS3mbMF3zt2db48ZP5v3rkrAEJY/edit#gid=780868077"
read_sheet(ugly_url)
#> ✔ Reading from gapminder.
#> ✔ Range Africa.
#> # A tibble: 624 × 6
#>   country continent  year lifeExp      pop gdpPercap
#>   <chr>   <chr>     <dbl>   <dbl>    <dbl>     <dbl>
#> 1 Algeria Africa     1952    43.1  9279525     2449.
#> 2 Algeria Africa     1957    45.7 10270856     3014.
#> 3 Algeria Africa     1962    48.3 11000948     2551.
#> 4 Algeria Africa     1967    51.4 12760499     3247.
#> 5 Algeria Africa     1972    54.5 14760787     4183.
#> # … with 619 more rows
…
This is the same metadata you’ll see when you call
gs4_get() (but you must call gs4_get()
explicitly if you want to store the returned metadata).

googlesheets4 also accepts a Sheet ID as the ss argument
of many functions:

read_sheet(ssid)
#> ✔ Reading from gapminder.
#> ✔ Range Africa.
#> # A tibble: 624 × 6
#>   country continent  year lifeExp      pop gdpPercap
#>   <chr>   <chr>     <dbl>   <dbl>    <dbl>     <dbl>
#> 1 Algeria Africa     1952    43.1  9279525     2449.
#> 2 Algeria Africa     1957    45.7 10270856     3014.
#> 3 Algeria Africa     1962    48.3 11000948     2551.
#> 4 Algeria Africa     1967    51.4 12760499     3247.
#> 5 Algeria Africa     1972    54.5 14760787     4183.
#> # … with 619 more rows

I think in a script or app that will endure for a while it is better
to refer to a Sheet by its ID than by its URL. The Sheet ID is nicer to
look at, it is complete, it is minimal.

ssid <- "1U6Cf_qEOhiR9AZqTqS3mbMF3zt2db48ZP5v3rkrAEJY"
read_sheet(ssid)
#> ✔ Reading from gapminder.
#> ✔ Range Africa.
#> # A tibble: 624 × 6
#>   country continent  year lifeExp      pop gdpPercap
#>   <chr>   <chr>     <dbl>   <dbl>    <dbl>     <dbl>
#> 1 Algeria Africa     1952    43.1  9279525     2449.
#> 2 Algeria Africa     1957    45.7 10270856     3014.
#> 3 Algeria Africa     1962    48.3 11000948     2551.
#> 4 Algeria Africa     1967    51.4 12760499     3247.
#> 5 Algeria Africa     1972    54.5 14760787     4183.
#> # … with 619 more rows
…
When the Sheet is specified via a character string, googlesheets4
assumes it is a Sheet ID (or an ID-containing URL). This is NOT the case
for googledrive, which assumes a character string is a file name or
path. Therefore, for maximum happiness, in a mixed googlesheets4 /
googledrive workflow, it’s a good idea to be explicit and declare a
string to be a Sheet ID, when that is the case.

ssid <- as_sheets_id("1U6Cf_qEOhiR9AZqTqS3mbMF3zt2db48ZP5v3rkrAEJY")
read_sheet(ssid)
#> ✔ Reading from gapminder.
#> ✔ Range Africa.
#> # A tibble: 624 × 6
#>   country continent  year lifeExp      pop gdpPercap
#>   <chr>   <chr>     <dbl>   <dbl>    <dbl>     <dbl>
#> 1 Algeria Africa     1952    43.1  9279525     2449.
#> 2 Algeria Africa     1957    45.7 10270856     3014.
#> 3 Algeria Africa     1962    48.3 11000948     2551.
#> 4 Algeria Africa     1967    51.4 12760499     3247.
#> 5 Algeria Africa     1972    54.5 14760787     4183.
#> # … with 619 more rows
…
List your Sheets (uses googledrive)

What if you want to see all of your Sheets? Or all the Sheets with
“gap” in their name?

googledrive::drive_find() is the workhorse function for
these tasks for general Drive files. It has lots of bells and whistles
and we can use one of them to narrow the search to Google Sheets:

drive_find(type = "spreadsheet")
#> # A dribble: 9 × 3
#>   name              id                                        drive_reso…¹
#>   <chr>             <drv_id>                                  <list>      
#> 1 geological-canary 13fmUp01xitQrPvgw7LWDXNMHiMewxHnPuYHaig2… <named list>
#> 2 blubbery-lobo     1foTYXQEknymPpyug1xWOq7ituJ-ywLCaTEHaF2y… <named list>
#> 3 bacciform-booby   15WqCxHBCjY4P_i6-uTL9rUBgpcHRKQFrqheRSSO… <named list>
#> 4 childsafe-squid   1uGu_BHwialVz6okcuO5kRgLhaprClnzq5Orgc9B… <named list>
#> 5 fiery-hart        18KiiL2AGkL9nTkjHdOXGmeUQzqnOLqWnnOIEnWY… <named list>
#> # … with 4 more rows, and abbreviated variable name ¹​drive_resource

This is so handy that we’ve made gs4_find() in
googlesheets4, which is a shortcut for
drive_find(type = "spreadsheet"):

gs4_find()
#> # A dribble: 9 × 3
#>   name              id                                        drive_reso…¹
#>   <chr>             <drv_id>                                  <list>      
#> 1 geological-canary 13fmUp01xitQrPvgw7LWDXNMHiMewxHnPuYHaig2… <named list>
#> 2 blubbery-lobo     1foTYXQEknymPpyug1xWOq7ituJ-ywLCaTEHaF2y… <named list>
#> 3 bacciform-booby   15WqCxHBCjY4P_i6-uTL9rUBgpcHRKQFrqheRSSO… <named list>
#> 4 childsafe-squid   1uGu_BHwialVz6okcuO5kRgLhaprClnzq5Orgc9B… <named list>
#> 5 fiery-hart        18KiiL2AGkL9nTkjHdOXGmeUQzqnOLqWnnOIEnWY… <named list>
#> # … with 4 more rows, and abbreviated variable name ¹​drive_resource
…
