Get started with googlesheets4 • googlesheets4
…
read_sheet() is designed to “just work”, for most
purposes, most of the time. It can read straight from a Sheets browser
URL:

read_sheet("https://docs.google.com/spreadsheets/d/1U6Cf_qEOhiR9AZqTqS3mbMF3zt2db48ZP5v3rkrAEJY/edit#gid=780868077")
#> ✔ Reading from gapminder.
#> ✔ Range Africa.
#> # A tibble: 624 × 6
#>   country continent  year lifeExp      pop gdpPercap
#>   <chr>   <chr>     <dbl>   <dbl>    <dbl>     <dbl>
#> 1 Algeria Africa     1952    43.1  9279525     2449.
#> 2 Algeria Africa     1957    45.7 10270856     3014.
#> 3 Algeria Africa     1962    48.3 11000948     2551.
#> 4 Algeria Africa     1967    51.4 12760499     3247.
#> 5 Algeria Africa     1972    54.5 14760787     4183.
#> # ℹ 619 more rows

However, these URLs are not pleasant to work with. More often, you
will want to identify a Sheet by its ID:

read_sheet("1U6Cf_qEOhiR9AZqTqS3mbMF3zt2db48ZP5v3rkrAEJY")
#> ✔ Reading from gapminder.
#> ✔ Range Africa.
#> # A tibble: 624 × 6
#>   country continent  year lifeExp      pop gdpPercap
#>   <chr>   <chr>     <dbl>   <dbl>    <dbl>     <dbl>
#> 1 Algeria Africa     1952    43.1  9279525     2449.
#> 2 Algeria Africa     1957    45.7 10270856     3014.
#> 3 Algeria Africa     1962    48.3 11000948     2551.
#> 4 Algeria Africa     1967    51.4 12760499     3247.
#> 5 Algeria Africa     1972    54.5 14760787     4183.
#> # ℹ 619 more rows

or by its name, which requires an assist from the googledrive package
(googledrive.tidyverse.org):

library(googledrive)

drive_get("gapminder") %>% 
  read_sheet()
#> ✔ Reading from gapminder.
#> # A tibble: 624 × 6
#>   country continent  year lifeExp      pop gdpPercap
#>   <chr>   <chr>     <dbl>   <dbl>    <dbl>     <dbl>
#> 1 Algeria Africa     1952    43.1  9279525     2449.
#> 2 Algeria Africa     1957    45.7 10270856     3014.
#> 3 Algeria Africa     1962    48.3 11000948     2551.
#> 4 Algeria Africa     1967    51.4 12760499     3247.
#> 5 Algeria Africa     1972    54.5 14760787     4183.
#> # ℹ 619 more rows
…
We can also use sheet_write() to replace the data in an
existing sheet.

sheet_write(data.frame(x = 4:10, letters[4:10]), ss, sheet = "df")
#> ✔ Writing to testy-hedgehog.
#> ✔ Writing to sheet df.
read_sheet(ss, sheet = "df")
#> ✔ Reading from testy-hedgehog.
#> ✔ Range ''df''.
#> # A tibble: 7 × 2
#>       x letters.4.10.
#>   <dbl> <chr>        
#> 1     4 d            
#> 2     5 e            
#> 3     6 f            
#> 4     7 g            
#> 5     8 h            
#> # ℹ 2 more rows

sheet_append() adds one or more rows to an existing
sheet.

ss %>% sheet_append(data.frame(x = 11, letters[11]), sheet = "df")
#> ✔ Writing to testy-hedgehog.
#> ✔ Appending 1 row to df.
read_sheet(ss, sheet = "df")
#> ✔ Reading from testy-hedgehog.
#> ✔ Range ''df''.
#> # A tibble: 8 × 2
#>       x letters.4.10.
#>   <dbl> <chr>        
#> 1     4 d            
#> 2     5 e            
#> 3     6 f            
#> 4     7 g            
#> 5     8 h            
#> # ℹ 3 more rows
…
