Read cells from a Sheet — range_read_cells • googlesheets4
…
if (gs4_has_token()) {
  range_read_cells(gs4_example("deaths"), range = "arts_data")

  # if you want detailed and exhaustive cell data, do this
  range_read_cells(
    gs4_example("formulas-and-formats"),
    cell_data = "full",
    discard_empty = FALSE
  )
}
#> ✔ Reading from deaths.
#> ✔ Range arts_data.
#> ✔ Reading from formulas-and-formats.
#> ✔ Range Sheet1.
#> # A tibble: 678 × 4
#>      row   col loc   cell      
#>    <int> <int> <chr> <list>    
#>  1     1     1 A1    <CELL_TEX>
#>  2     1     2 B1    <CELL_TEX>
#>  3     1     3 C1    <CELL_TEX>
#>  4     1     4 D1    <CELL_TEX>
#>  5     1     5 E1    <CELL_TEX>
#>  6     1     6 F1    <CELL_TEX>
#>  7     2     1 A2    <CELL_NUM>
#>  8     2     2 B2    <CELL_NUM>
#>  9     2     3 C2    <CELL_NUM>
#> 10     2     4 D2    <CELL_TEX>
#> # … with 668 more rows
…
