Read cells from a Sheet — sheets_cells • googlesheets4
…
    Value

    A tibble with one row per non-empty cell in the range. this might
get dignified with a class?

    Examples

sheets_cells(sheets_example("deaths"))
#> Reading from 'deaths'
#> Range "'arts'"
#> # A tibble: 82 x 4
#>      row   col loc   cell      
#>    <int> <dbl> <chr> <list>    
#>  1     1     1 A1    <CELL_TEX>
#>  2     2     1 A2    <CELL_TEX>
#>  3     2     6 F2    <CELL_TEX>
#>  4     3     1 A3    <CELL_TEX>
#>  5     3     2 B3    <CELL_TEX>
#>  6     3     3 C3    <CELL_TEX>
#>  7     3     5 E3    <CELL_TEX>
#>  8     3     6 F3    <CELL_TEX>
#>  9     4     1 A4    <CELL_TEX>
#> 10     4     2 B4    <CELL_TEX>
#> # … with 72 more rows
…
