Find and Identify Sheets • googlesheets4
…
https://docs.google.com/spreadsheets/d/1U6Cf_qEOhiR9AZqTqS3mbMF3zt2db48ZP5v3rkrAEJY/edit#gid=780868077

which breaks down like this:

https://docs.google.com/spreadsheets/d/SPREADSHEET_ID/edit#gid=SHEET_ID

Notice that this URL contains a (spread)Sheet ID and a (work)sheet ID. This URL happens to link to the official example Sheet that holds Gapminder data.

googlesheets4 accepts such a URL as the ss argument (think “spreadsheet”) of many functions:

ugly_url <- "https://docs.google.com/spreadsheets/d/1U6Cf_qEOhiR9AZqTqS3mbMF3zt2db48ZP5v3rkrAEJY/edit#gid=780868077"
sheets_read(ugly_url)
#> Reading from "gapminder"
#> Range "Africa"
#> # A tibble: 624 x 6
#>   country continent  year lifeExp      pop gdpPercap
#>   <chr>   <chr>     <dbl>   <dbl>    <dbl>     <dbl>
#> 1 Algeria Africa     1952    43.1  9279525     2449.
#> 2 Algeria Africa     1957    45.7 10270856     3014.
#> 3 Algeria Africa     1962    48.3 11000948     2551.
#> 4 Algeria Africa     1967    51.4 12760499     3247.
#> 5 Algeria Africa     1972    54.5 14760787     4183.
#> # … with 619 more rows
…
This is the same metadata you’ll see when you call sheets_get() (but you must call sheets_get() explicitly if you want to store the returned metadata).

googlesheets4 also accepts a Sheet ID as the ss argument of many functions:

sheets_read(ssid)
#> Reading from "gapminder"
#> Range "Africa"
#> # A tibble: 624 x 6
#>   country continent  year lifeExp      pop gdpPercap
#>   <chr>   <chr>     <dbl>   <dbl>    <dbl>     <dbl>
#> 1 Algeria Africa     1952    43.1  9279525     2449.
#> 2 Algeria Africa     1957    45.7 10270856     3014.
#> 3 Algeria Africa     1962    48.3 11000948     2551.
#> 4 Algeria Africa     1967    51.4 12760499     3247.
#> 5 Algeria Africa     1972    54.5 14760787     4183.
#> # … with 619 more rows

I think in a script or app that will endure for a while it is better to refer to a Sheet by its ID than by its URL. The Sheet ID is nicer to look at, it is complete, it is minimal.

ssid <- "1U6Cf_qEOhiR9AZqTqS3mbMF3zt2db48ZP5v3rkrAEJY"
sheets_read(ssid)
#> Reading from "gapminder"
#> Range "Africa"
#> # A tibble: 624 x 6
#>   country continent  year lifeExp      pop gdpPercap
#>   <chr>   <chr>     <dbl>   <dbl>    <dbl>     <dbl>
#> 1 Algeria Africa     1952    43.1  9279525     2449.
#> 2 Algeria Africa     1957    45.7 10270856     3014.
#> 3 Algeria Africa     1962    48.3 11000948     2551.
#> 4 Algeria Africa     1967    51.4 12760499     3247.
#> 5 Algeria Africa     1972    54.5 14760787     4183.
#> # … with 619 more rows

Note this demonstration that a Sheet ID also works when provided as a plain, old string, i.e. it does not have to have the sheets_id class. In some contexts, you might even prefer to store it as a string, in order to bypass the special printing behaviour for sheets_id.

When the Sheet is specified via a character string, googlesheets4 assumes it is a Sheet ID (or an ID-containing URL). This is NOT the case for googledrive, which assumes a character string is a file name or path. Therefore, for maximum happiness, in a mixed googlesheets4 / googledrive workflow, it’s a good idea to be explicit and declare a string to be a Sheet ID, when that is the case.

ssid <- as_sheets_id("1U6Cf_qEOhiR9AZqTqS3mbMF3zt2db48ZP5v3rkrAEJY")
sheets_read(ssid)
#> Reading from "gapminder"
#> Range "Africa"
#> # A tibble: 624 x 6
#>   country continent  year lifeExp      pop gdpPercap
#>   <chr>   <chr>     <dbl>   <dbl>    <dbl>     <dbl>
#> 1 Algeria Africa     1952    43.1  9279525     2449.
#> 2 Algeria Africa     1957    45.7 10270856     3014.
#> 3 Algeria Africa     1962    48.3 11000948     2551.
#> 4 Algeria Africa     1967    51.4 12760499     3247.
#> 5 Algeria Africa     1972    54.5 14760787     4183.
#> # … with 619 more rows
…
googledrive requires auth for functions like drive_get() and drive_find() (see below). At first, you can just react to the interactive auth prompts and make sure you auth as the same user with googledrive and googlesheets4. Once you get tired of doing auth for both packages, read the article Using googlesheets4 with googledrive. Coordinated auth should get even easier in the future.

In our hidden auth here, we have taken special measures to use a shared token for googledrive and googlesheets4.

Remember to use drive_get() on a Sheet name that you have. If you don’t have a Sheet named “gapminder”, the code above won’t yield anything. As a rough rule of thumb, if you don’t see it at spreadsheets.google.com, you can’t drive_get() it either.

List your Sheets (uses googledrive)

What if you want to see all of your Sheets? Or all the Sheets with “gap” in their name?

googledrive::drive_find() is the workhorse function for these tasks for general Drive files. It has lots of bells and whistles and we can use one of them to narrow the search to Google Sheets:

drive_find(type = "spreadsheet")
#> # A tibble: 18 x 3
#>   name                id                                        drive_resource  
#> * <chr>               <chr>                                     <list>          
#> 1 fiery-hart          1F60ChBDLCJD6J7kVQQTXqkCtrxE7Y8Ffl6OXDfH… <named list [33…
#> 2 sheets-flood-examp… 1ZAu7r8TbsxEl3Gg-YTnyYJHzubmrxkVlwR4Pzzq… <named list [34…
#> 3 phonolite-coyote    1crxUInxIw-mV3rX75IIyy1V-s6Vt8QG_eOSJFrQ… <named list [34…
#> 4 sheets-resize-demo  10yXUGTkn2ECf7jo3yC5B7PQinRIVYP-ajXrlVPQ… <named list [34…
#> 5 duncish-swellfish   19EiM9FXNuooVBDrNnMbn97f7x3NgZJm4PIw7vOW… <named list [34…
#> # … with 13 more rows

This is so handy that we’ve made sheets_find() in googlesheets4, which is a shortcut for drive_find(type = "spreadsheet"):

sheets_find()
#> # A tibble: 18 x 3
#>   name                id                                        drive_resource  
#> * <chr>               <chr>                                     <list>          
#> 1 fiery-hart          1F60ChBDLCJD6J7kVQQTXqkCtrxE7Y8Ffl6OXDfH… <named list [33…
#> 2 sheets-flood-examp… 1ZAu7r8TbsxEl3Gg-YTnyYJHzubmrxkVlwR4Pzzq… <named list [34…
#> 3 phonolite-coyote    1crxUInxIw-mV3rX75IIyy1V-s6Vt8QG_eOSJFrQ… <named list [34…
#> 4 sheets-resize-demo  10yXUGTkn2ECf7jo3yC5B7PQinRIVYP-ajXrlVPQ… <named list [34…
#> 5 duncish-swellfish   19EiM9FXNuooVBDrNnMbn97f7x3NgZJm4PIw7vOW… <named list [34…
#> # … with 13 more rows
…
