Read Sheet as CSV — range_speedread • googlesheets4
…
# demo that range_speedread() sends a token, which is why we can read this
range_speedread(ss)
#> ✔ Reading from fiery-hart.
#> ℹ Export URL:
#>   <https://docs.google.com/spreadsheets/d/1FNtH9EA3xtWy3tsGqCtAL7zDjq3J8zIcid1hjbVK89Q/export?format=csv>
#> Rows: 71 Columns: 2
#> ── Column specification ───────────────────────────────────────────────
#> Delimiter: ","
#> chr (1): feed
#> dbl (1): weight
#> 
#> ℹ Use `spec()` to retrieve the full column specification for this data.
#> ℹ Specify the column types or set `show_col_types = FALSE` to quiet this message.
#> # A tibble: 71 × 2
#>    weight feed     
#>     <dbl> <chr>    
#>  1    179 horsebean
#>  2    160 horsebean
#>  3    136 horsebean
#>  4    227 horsebean
#>  5    217 horsebean
#>  6    168 horsebean
#>  7    108 horsebean
#>  8    124 horsebean
#>  9    143 horsebean
#> 10    140 horsebean
#> # ℹ 61 more rows
…
