Read cells from a Sheet — range_read_cells • googlesheets4
…
    Value

    A tibble with one row per cell in the range.

    See also

    Wraps the spreadsheets.get endpoint:
https://developers.google.com/sheets/api/reference/rest/v4/spreadsheets/get

    Examples

range_read_cells(gs4_example("deaths"), range = "arts_data")
#> ✔ Reading from deaths.
#> ✔ Range arts_data.
#> # A tibble: 66 × 4
#>      row   col loc   cell      
#>    <int> <int> <chr> <list>    
#>  1     5     1 A5    <CELL_TEX>
#>  2     5     2 B5    <CELL_TEX>
#>  3     5     3 C5    <CELL_TEX>
#>  4     5     4 D5    <CELL_TEX>
#>  5     5     5 E5    <CELL_TEX>
#>  6     5     6 F5    <CELL_TEX>
#>  7     6     1 A6    <CELL_TEX>
#>  8     6     2 B6    <CELL_TEX>
#>  9     6     3 C6    <CELL_NUM>
#> 10     6     4 D6    <CELL_LOG>
#> # ℹ 56 more rows

# if you want detailed and exhaustive cell data, do this
range_read_cells(
  gs4_example("formulas-and-formats"),
  cell_data = "full",
  discard_empty = FALSE
)
#> ✔ Reading from formulas-and-formats.
#> ✔ Range Sheet1.
#> # A tibble: 678 × 4
#>      row   col loc   cell      
#>    <int> <int> <chr> <list>    
#>  1     1     1 A1    <CELL_TEX>
#>  2     1     2 B1    <CELL_TEX>
#>  3     1     3 C1    <CELL_TEX>
#>  4     1     4 D1    <CELL_TEX>
#>  5     1     5 E1    <CELL_TEX>
#>  6     1     6 F1    <CELL_TEX>
#>  7     2     1 A2    <CELL_NUM>
#>  8     2     2 B2    <CELL_NUM>
#>  9     2     3 C2    <CELL_NUM>
#> 10     2     4 D2    <CELL_TEX>
#> # ℹ 668 more rows
…
